DataMiningWithBusinessIntelligence.knit
…
 Observations: 
 The data set has 800 rows and 8 columns.

 Removing duplicates 
 We use the below command to remove the duplicates 

duprecords <- duplicated(faa1[,-2]) 
faa_new <- faa1[!duprecords,] 

(faa_new)

## # A tibble: 800 x 8
##    aircraft duration no_pasg speed_ground speed_air height pitch distance
##    <chr>       <dbl>   <dbl>        <dbl>     <dbl>  <dbl> <dbl>    <dbl>
##  1 boeing       98.5      53        108.       109.   27.4  4.04    3370.
##  2 boeing      126.       69        102.       103.   27.8  4.12    2988.
##  3 boeing      112.       61         71.1       NA    18.6  4.43    1145.
##  4 boeing      197.       56         85.8       NA    30.7  3.88    1664.
##  5 boeing       90.1      70         59.9       NA    32.4  4.03    1050.
##  6 boeing      138.       55         75.0       NA    41.2  4.20    1627.
##  7 boeing       73.0      54         54.4       NA    24.0  3.84     805.
##  8 boeing       52.9      57         57.1       NA    19.4  4.64     574.
##  9 boeing      156.       61         85.4       NA    35.4  4.23    1699.
## 10 boeing      177.       56         61.8       NA    36.7  4.18    1138.
## # ... with 790 more rows
…
